name,count
Michael Phelps,28
Larisa Latynina,18
Nikolay Andrianov,15
Boris Shakhlin,13
Edoardo Mangiarotti,13
Takashi Ono,13
Ryan Lochte,12
Sawao Kato,12
Natalie Coughlin,12
Paavo Nurmi,12
Alexei Nemov,12
Jenny Thompson,12
Dara Torres,12
Birgit Fischer,12
Matthew Biondi,11
Mark Spitz,11
Vera Caslavska,11
Carl Townsend Osburn,11
Viktor Ivanovich Chukarin,11
Isabell Werth,10
Carl Lewis,10
Aleksandr Dityatin,10
Polina Astakhova,10
Akinori Nakayama,10
Aladar Gerevich,10
Agnes Keleti,10
Gary Jr. Hall,10
Vitaly Scherbo,10
Franziska Van Almsick,10
Ian Thorpe,9
Alexander Popov,9
Alfred Swahn,9
Giulio Gaudini,9
Yuri Titov,9
Heikki Savolainen,9
Usain Bolt,9
Hubert Van Innis,9
Leisel Jones,9
Valentina Vezzali,9
Eizo Kenmotsu,9
Merlene Ottey-Page,9
Mikhail Voronin,9
Lyudmila Turischeva,9
Nadia Comaneci,9
Allyson Felix,9
Mitsuo Tsukahara,9
Otto M. Olsen,8
Bradley Wiggins,8
Elisabeta Lipa,8
Philippe Cattiau,8
Inge De Bruijn,8
Eugen Mack,8
Sofiya Muratova,8
Ville Ritola,8
Shirley Farber Babashoff,8
Dmitry Sautin,8
G. Vilhelm Carlberg,8
Anky Van Grunsven,8
Kornelia Ender,8
Susan O'Neill,8
Giovanna Trillini,8
Georges Miez,8
Reiner Klimke,8
Petria Thomas,8
Ray Ewry,8
Roland Matthes,8
Allison Schmitt,8
Nathan Adrian,8
Veronica Campbell-Brown,8
Roger Francois Ducret,8
Dawn Fraser,8
Jason Lezak,8
Gert Fredriksson,8
Katalin Kovacs,8
Margit Korondi,8
